<svg width="30" height="20" viewBox="0 0 30 20" fill="none" xmlns="http://www.w3.org/2000/svg">
<path opacity="0.5" d="M5.21608 0.400024H2.19998C1.99684 0.400024 0.0666504 1.30488 0.0666504 2.42108V17.579C0.0666504 18.6952 2.89883 19.6 1.66665 19.6H28.4929L29.8414 16.2877H5.21608V0.400024Z" fill="#C3CCCB"/>
<path d="M25.5 17.5C26.6046 17.5 27.5 16.6046 27.5 15.5C27.5 14.3954 26.6046 13.5 25.5 13.5C24.3954 13.5 23.5 14.3954 23.5 15.5C23.5 16.6046 24.3954 17.5 25.5 17.5Z" fill="#BD1524"/>
<path d="M6.5 3.5H4.5C3.94772 3.5 3.5 3.94772 3.5 4.5V6.5C3.5 7.05228 3.94772 7.5 4.5 7.5H6.5C7.05228 7.5 7.5 7.05228 7.5 6.5V4.5C7.5 3.94772 7.05228 3.5 6.5 3.5Z" fill="#DD2233"/>
<path d="M23 17.5C24.1046 17.5 25 16.6046 25 15.5C25 14.3954 24.1046 13.5 23 13.5C21.8954 13.5 21 14.3954 21 15.5C21 16.6046 21.8954 17.5 23 17.5Z" fill="#DD2233"/>
<path d="M2.5 20H27.5C28.1628 19.9993 28.7983 19.7356 29.2669 19.2669C29.7356 18.7983 29.9993 18.1628 30 17.5V2.5C29.9993 1.83719 29.7356 1.20173 29.2669 0.733055C28.7983 0.264375 28.1628 0.000744409 27.5 0H2.5C1.83719 0.000744409 1.20173 0.264375 0.733055 0.733055C0.264376 1.20173 0.000744409 1.83719 0 2.5V17.5C0.000744409 18.1628 0.264376 18.7983 0.733055 19.2669C1.20173 19.7356 1.83719 19.9993 2.5 20ZM1 2.5C1.00046 2.10232 1.15865 1.72106 1.43985 1.43985C1.72106 1.15865 2.10232 1.00046 2.5 1H27.5C27.8977 1.00046 28.2789 1.15865 28.5601 1.43985C28.8414 1.72106 28.9995 2.10232 29 2.5V17.5C28.9995 17.8977 28.8414 18.2789 28.5601 18.5601C28.2789 18.8414 27.8977 18.9995 27.5 19H2.5C2.10232 18.9995 1.72106 18.8414 1.43985 18.5601C1.15865 18.2789 1.00046 17.8977 1 17.5V2.5Z" fill="#C3CCCB"/>
<path d="M4.5 8H6.5C6.89768 7.99954 7.27894 7.84135 7.56015 7.56015C7.84135 7.27894 7.99954 6.89768 8 6.5V4.5C7.99954 4.10232 7.84135 3.72106 7.56015 3.43985C7.27894 3.15865 6.89768 3.00046 6.5 3H4.5C4.10232 3.00046 3.72106 3.15865 3.43985 3.43985C3.15865 3.72106 3.00046 4.10232 3 4.5V6.5C3.00046 6.89768 3.15865 7.27894 3.43985 7.56015C3.72106 7.84135 4.10232 7.99954 4.5 8ZM4 6H4.5C4.63261 6 4.75979 5.94732 4.85355 5.85355C4.94732 5.75979 5 5.63261 5 5.5C5 5.36739 4.94732 5.24021 4.85355 5.14645C4.75979 5.05268 4.63261 5 4.5 5H4V4.5C4.00015 4.36744 4.05288 4.24035 4.14661 4.14661C4.24035 4.05288 4.36744 4.00015 4.5 4H6.5C6.63256 4.00015 6.75965 4.05288 6.85339 4.14661C6.94712 4.24035 6.99985 4.36744 7 4.5V5H6.5C6.36739 5 6.24021 5.05268 6.14645 5.14645C6.05268 5.24021 6 5.36739 6 5.5C6 5.63261 6.05268 5.75979 6.14645 5.85355C6.24021 5.94732 6.36739 6 6.5 6H7V6.5C6.99985 6.63256 6.94712 6.75965 6.85339 6.85339C6.75965 6.94712 6.63256 6.99985 6.5 7H4.5C4.36744 6.99985 4.24035 6.94712 4.14661 6.85339C4.05288 6.75965 4.00015 6.63256 4 6.5V6Z" fill="#C3CCCB"/>
<path d="M3.5 15H11C11.1326 15 11.2598 14.9473 11.3536 14.8536C11.4473 14.7598 11.5 14.6326 11.5 14.5C11.5 14.3674 11.4473 14.2402 11.3536 14.1464C11.2598 14.0527 11.1326 14 11 14H3.5C3.36739 14 3.24021 14.0527 3.14645 14.1464C3.05268 14.2402 3 14.3674 3 14.5C3 14.6326 3.05268 14.7598 3.14645 14.8536C3.24021 14.9473 3.36739 15 3.5 15Z" fill="#C3CCCB"/>
<path d="M3.5 17L13.5 17.0004C13.6326 17.0004 13.7598 16.9477 13.8536 16.8539C13.9473 16.7602 14 16.633 14 16.5004C14 16.3678 13.9473 16.2406 13.8536 16.1468C13.7598 16.0531 13.6326 16.0004 13.5 16.0004L3.5 16C3.36739 16 3.24021 16.0527 3.14645 16.1464C3.05268 16.2402 3 16.3674 3 16.5C3 16.6326 3.05268 16.7598 3.14645 16.8536C3.24021 16.9473 3.36739 17 3.5 17Z" fill="#C3CCCB"/>
<path d="M23 18C23.4388 18.0003 23.8699 17.8844 24.2493 17.664C24.6294 17.8838 25.0606 17.9997 25.4996 18C25.9386 18.0003 26.37 17.8849 26.7503 17.6656C27.1306 17.4462 27.4464 17.1306 27.666 16.7505C27.8856 16.3703 28.0012 15.939 28.0012 15.5C28.0012 15.061 27.8856 14.6297 27.666 14.2495C27.4464 13.8694 27.1306 13.5538 26.7503 13.3344C26.37 13.1151 25.9386 12.9997 25.4996 13C25.0606 13.0003 24.6294 13.1162 24.2493 13.336C23.9173 13.1443 23.5456 13.0315 23.163 13.0064C22.7804 12.9813 22.3971 13.0445 22.0429 13.1912C21.6887 13.338 21.3729 13.5642 21.1201 13.8525C20.8673 14.1408 20.6842 14.4834 20.585 14.8537C20.4858 15.2241 20.4731 15.6123 20.548 15.9884C20.6228 16.3644 20.7832 16.7182 21.0166 17.0224C21.2501 17.3266 21.5504 17.5729 21.8943 17.7424C22.2382 17.912 22.6165 18.0001 23 18ZM25.0487 14.0698C25.2734 13.9988 25.5117 13.9817 25.7443 14.0199C25.9769 14.0582 26.1972 14.1507 26.3873 14.29C26.5775 14.4293 26.7321 14.6115 26.8387 14.8217C26.9453 15.0319 27.0008 15.2643 27.0008 15.5C27.0008 15.7357 26.9453 15.9681 26.8387 16.1784C26.7321 16.3886 26.5775 16.5707 26.3873 16.71C26.1972 16.8493 25.9769 16.9419 25.7443 16.9801C25.5117 17.0184 25.2734 17.0013 25.0487 16.9302C25.3424 16.5112 25.5 16.0118 25.5 15.5C25.5 14.9883 25.3424 14.4889 25.0487 14.0698ZM23 14C23.2966 14 23.5867 14.088 23.8333 14.2528C24.08 14.4176 24.2723 14.6519 24.3858 14.926C24.4993 15.2001 24.529 15.5017 24.4711 15.7926C24.4133 16.0836 24.2704 16.3509 24.0606 16.5607C23.8509 16.7704 23.5836 16.9133 23.2926 16.9712C23.0016 17.0291 22.7 16.9993 22.426 16.8858C22.1519 16.7723 21.9176 16.58 21.7528 16.3334C21.588 16.0867 21.5 15.7967 21.5 15.5C21.5004 15.1023 21.6586 14.7211 21.9398 14.4398C22.221 14.1586 22.6023 14.0005 23 14Z" fill="#C3CCCB"/>
<path d="M25.7764 7.94714C25.8351 7.97657 25.899 7.99412 25.9645 7.99881C26.03 8.0035 26.0958 7.99522 26.1581 7.97446C26.2204 7.95369 26.278 7.92085 26.3276 7.8778C26.3772 7.83475 26.4178 7.78235 26.4472 7.72358C26.4698 7.67839 27 6.60533 27 5.49996C27 4.39458 26.4698 3.32152 26.4472 3.27633C26.3873 3.15874 26.2835 3.06956 26.1582 3.02822C26.0329 2.98689 25.8963 2.99675 25.7783 3.05566C25.6602 3.11457 25.5702 3.21776 25.5279 3.34273C25.4856 3.4677 25.4944 3.60432 25.5524 3.72283C25.5569 3.73189 26 4.63496 26 5.49996C26 6.36496 25.5569 7.26802 25.5528 7.27633C25.4935 7.39493 25.4837 7.53224 25.5256 7.65804C25.5676 7.78384 25.6578 7.88783 25.7764 7.94714Z" fill="#C3CCCB"/>
<path d="M21.6465 6.85359C21.693 6.90002 21.7481 6.93686 21.8087 6.96198C21.8694 6.98711 21.9344 7.00005 22.0001 7.00005C22.0657 7.00005 22.1308 6.98711 22.1914 6.96198C22.2521 6.93686 22.3072 6.90002 22.3536 6.85359C22.4198 6.78753 23.0001 6.18753 23.0001 5.50003C23.0001 4.81253 22.4198 4.21253 22.3536 4.14647C22.2601 4.05251 22.133 3.99959 22.0004 3.99933C21.8678 3.99907 21.7405 4.0515 21.6465 4.14509C21.5526 4.23868 21.4996 4.36576 21.4994 4.49837C21.4991 4.63098 21.5516 4.75826 21.6452 4.85222C21.7883 4.99765 22.0001 5.30415 22.0001 5.50003C22.0001 5.6959 21.7883 6.0024 21.6465 6.14647C21.6001 6.1929 21.5633 6.24802 21.5381 6.30868C21.513 6.36935 21.5001 6.43437 21.5001 6.50003C21.5001 6.56569 21.513 6.63071 21.5381 6.69138C21.5633 6.75204 21.6001 6.80716 21.6465 6.85359Z" fill="#C3CCCB"/>
<path d="M3.5 11H6.5C6.63261 11 6.75979 10.9473 6.85355 10.8536C6.94732 10.7598 7 10.6326 7 10.5C7 10.3674 6.94732 10.2402 6.85355 10.1464C6.75979 10.0527 6.63261 10 6.5 10H3.5C3.36739 10 3.24021 10.0527 3.14645 10.1464C3.05268 10.2402 3 10.3674 3 10.5C3 10.6326 3.05268 10.7598 3.14645 10.8536C3.24021 10.9473 3.36739 11 3.5 11Z" fill="#C3CCCB"/>
<path d="M9.5 11H12.5C12.6326 11 12.7598 10.9473 12.8536 10.8536C12.9473 10.7598 13 10.6326 13 10.5C13 10.3674 12.9473 10.2402 12.8536 10.1464C12.7598 10.0527 12.6326 10 12.5 10H9.5C9.36739 10 9.24021 10.0527 9.14645 10.1464C9.05268 10.2402 9 10.3674 9 10.5C9 10.6326 9.05268 10.7598 9.14645 10.8536C9.24021 10.9473 9.36739 11 9.5 11Z" fill="#C3CCCB"/>
<path d="M15.5 11H18.5C18.6326 11 18.7598 10.9473 18.8536 10.8536C18.9473 10.7598 19 10.6326 19 10.5C19 10.3674 18.9473 10.2402 18.8536 10.1464C18.7598 10.0527 18.6326 10 18.5 10H15.5C15.3674 10 15.2402 10.0527 15.1464 10.1464C15.0527 10.2402 15 10.3674 15 10.5C15 10.6326 15.0527 10.7598 15.1464 10.8536C15.2402 10.9473 15.3674 11 15.5 11Z" fill="#C3CCCB"/>
<path d="M21.5 11H24.5C24.6326 11 24.7598 10.9473 24.8536 10.8536C24.9473 10.7598 25 10.6326 25 10.5C25 10.3674 24.9473 10.2402 24.8536 10.1464C24.7598 10.0527 24.6326 10 24.5 10H21.5C21.3674 10 21.2402 10.0527 21.1464 10.1464C21.0527 10.2402 21 10.3674 21 10.5C21 10.6326 21.0527 10.7598 21.1464 10.8536C21.2402 10.9473 21.3674 11 21.5 11Z" fill="#C3CCCB"/>
<path d="M24 5.49995C24 6.25926 23.6555 6.63645 23.6409 6.65214L23.6465 6.64639C23.5527 6.74016 23.5 6.86734 23.5 6.99995C23.5 7.13256 23.5527 7.25974 23.6465 7.35351C23.7402 7.44728 23.8674 7.49996 24 7.49996C24.1326 7.49996 24.2598 7.44728 24.3536 7.35351C24.4198 7.28745 25 6.67314 25 5.49995C25 4.32676 24.4198 3.71245 24.3536 3.64639C24.2598 3.55262 24.1326 3.49994 24 3.49994C23.8674 3.49994 23.7402 3.55262 23.6465 3.64639C23.5527 3.74016 23.5 3.86734 23.5 3.99995C23.5 4.13256 23.5527 4.25974 23.6465 4.35351C23.65 4.35708 24 4.74114 24 5.49995Z" fill="#C3CCCB"/>
</svg>
