<svg width="15" height="11" viewBox="0 0 15 11" fill="none" xmlns="http://www.w3.org/2000/svg">
<path d="M0 1C0 0.447715 0.447715 0 1 0H14C14.5523 0 15 0.447715 15 1V3H0V1Z" fill="#C3CCCB"/>
<path fill-rule="evenodd" clip-rule="evenodd" d="M1 10.5C0.447715 10.5 0 10.0523 0 9.5V4.5H15V9.5C15 10.0523 14.5523 10.5 14 10.5H1ZM11.5 6.5C11.2239 6.5 11 6.72386 11 7V8.5C11 8.77614 11.2239 9 11.5 9H13C13.2761 9 13.5 8.77614 13.5 8.5V7C13.5 6.72386 13.2761 6.5 13 6.5H11.5Z" fill="#C3CCCB"/>
</svg>
