<?xml version="1.0" encoding="UTF-8"?>
<svg width="19px" height="17px" viewBox="0 0 19 17" version="1.1" xmlns="http://www.w3.org/2000/svg" xmlns:xlink="http://www.w3.org/1999/xlink">
    <!-- Generator: Sketch 52.1 (67048) - http://www.bohemiancoding.com/sketch -->
    <title>listing</title>
    <g id="Sourses" stroke="none" stroke-width="1" fill="none" fill-rule="evenodd">
        <g id="Group-32" fill="#8C979B">
            <path d="M9.20742919,13.2471148 L4.99278689,13.2471148 C4.50383607,13.2471148 4.10754098,12.8508197 4.10754098,12.3618689 C4.10754098,11.872918 4.50383607,11.476623 4.99278689,11.476623 L9.20713411,11.476623 C9.69608493,11.476623 9.09238001,11.872918 9.09238001,12.3618689 C9.09238001,12.8508197 9.69638001,13.2471148 9.20742919,13.2471148 Z" id="Path"></path>
            <path d="M16.8562623,7.69042623 L4.99278689,7.69042623 C4.50383607,7.69042623 4.10754098,7.29413115 4.10754098,6.80518033 C4.10754098,6.31622951 4.50383607,5.91993443 4.99278689,5.91993443 L16.8559672,5.91993443 C17.344918,5.91993443 17.7412131,6.31622951 17.7412131,6.80518033 C17.7415082,7.29413115 17.3452131,7.69042623 16.8562623,7.69042623 Z" id="Path"></path>
            <path d="M16.7487213,1.7704918 L4.8852459,1.7704918 C4.39629508,1.7704918 4,1.37419672 4,0.885245902 C4,0.396295082 4.39629508,-7.66053887e-15 4.8852459,-7.66053887e-15 L16.7484262,-7.66053887e-15 C17.237377,-7.66053887e-15 17.6336721,0.396295082 17.6336721,0.885245902 C17.6336721,1.37419672 17.2376721,1.7704918 16.7487213,1.7704918 Z" id="Path"></path>
            <circle id="Oval" cx="1.18888525" cy="1.31695082" r="1.18888525"></circle>
            <circle id="Oval" cx="1.18888525" cy="6.80518033" r="1.18888525"></circle>
            <circle id="Oval" cx="1.18888525" cy="12.2934098" r="1.18888525"></circle>
            <path d="M14,17 C11.2385763,17 9,14.7614237 9,12 C9,9.23857625 11.2385763,7 14,7 C16.7614237,7 19,9.23857625 19,12 C19,14.7614237 16.7614237,17 14,17 Z M14,16 C16.209139,16 18,14.209139 18,12 C18,9.790861 16.209139,8 14,8 C11.790861,8 10,9.790861 10,12 C10,14.209139 11.790861,16 14,16 Z" id="Combined-Shape"></path>
            <path d="M14.5,11.5 L16.5,11.5 C16.7761424,11.5 17,11.7238576 17,12 C17,12.2761424 16.7761424,12.5 16.5,12.5 L14.5,12.5 L14.5,14.5 C14.5,14.7761424 14.2761424,15 14,15 C13.7238576,15 13.5,14.7761424 13.5,14.5 L13.5,12.5 L11.5,12.5 C11.2238576,12.5 11,12.2761424 11,12 C11,11.7238576 11.2238576,11.5 11.5,11.5 L13.5,11.5 L13.5,9.5 C13.5,9.22385763 13.7238576,9 14,9 C14.2761424,9 14.5,9.22385763 14.5,9.5 L14.5,11.5 Z" id="Combined-Shape"></path>
        </g>
    </g>
</svg>