<svg width="30" height="30" viewBox="0 0 30 30" fill="none" xmlns="http://www.w3.org/2000/svg">
<path d="M29.0616 14.0621H17.1869C16.6694 14.0621 16.2494 13.6421 16.2494 13.1246C16.2494 12.6071 16.6694 12.1871 17.1869 12.1871H29.0616C29.5791 12.1871 29.999 12.6071 29.999 13.1246C29.999 13.6421 29.5791 14.0621 29.0616 14.0621Z" fill="#C3CCCB"/>
<path d="M24.3743 18.7494C24.1342 18.7494 23.8943 18.658 23.7117 18.4745C23.3455 18.1081 23.3455 17.5144 23.7117 17.1482L27.7367 13.1234L23.7117 9.09842C23.3455 8.73222 23.3455 8.13852 23.7117 7.77232C24.0781 7.40589 24.6718 7.40589 25.038 7.77232L29.7254 12.4597C30.0916 12.8259 30.0916 13.4196 29.7254 13.7858L25.038 18.4731C24.8542 18.658 24.6143 18.7494 24.3743 18.7494Z" fill="#C3CCCB"/>
<path d="M19.0618 9.99976C18.5443 9.99976 18.1243 9.57978 18.1243 9.06229V3.43747C18.1243 2.57621 17.4233 1.87494 16.562 1.87494H2.49997C1.98249 1.87494 1.5625 1.45496 1.5625 0.937471C1.5625 0.419985 1.98249 0 2.49997 0H16.562C18.4583 0 19.9993 1.54124 19.9993 3.43747V9.06229C19.9993 9.57978 19.5793 9.99976 19.0618 9.99976Z" fill="#C3CCCB"/>
<rect opacity="0.5" x="7" y="0.999084" width="7" height="24" fill="#C4C4C4"/>
<path d="M16.5621 26.2492H11.5621C11.0446 26.2492 10.6246 25.8292 10.6246 25.3117C10.6246 24.7942 11.0446 24.3743 11.5621 24.3743H16.5621C17.4234 24.3743 18.1244 23.673 18.1244 22.8117V17.1869C18.1244 16.6694 18.5444 16.2495 19.0619 16.2495C19.5794 16.2495 19.9993 16.6694 19.9993 17.1869V22.8117C19.9993 24.708 18.4583 26.2492 16.5621 26.2492Z" fill="#C3CCCB"/>
<path d="M11.5621 4.9998V27.4991C11.5621 28.3617 10.8622 29.0616 9.99979 29.0616C9.8247 29.0616 9.6622 29.0367 9.4997 28.9865L1.99994 26.4868C1.38747 26.2742 0.9375 25.6866 0.9375 24.9993V2.50003C0.9375 1.6374 1.6374 0.9375 2.50003 0.9375C2.67489 0.9375 2.83739 0.962447 2.99989 1.01257L10.4997 3.51234C11.1121 3.72496 11.5621 4.31249 11.5621 4.9998Z" fill="#DD2233"/>
<path d="M5.06239 2.5123V25.0116C5.06239 25.8742 4.36249 26.5741 3.50009 26.5741C3.325 26.5741 3.1625 26.5492 3 26.4991L1.99994 26.4867C1.38747 26.2741 0.9375 25.6866 0.9375 24.9993V2.49997C0.9375 1.63734 1.6374 0.937439 2.50003 0.937439C2.67489 0.937439 2.83739 0.962386 2.99989 1.01251L3.99995 1.02484C4.61242 1.23747 5.06239 1.82499 5.06239 2.5123Z" fill="#BD1524"/>
<path d="M9.99976 29.9991C9.73221 29.9991 9.47839 29.9615 9.22479 29.8828L1.70237 27.3766C0.678842 27.0191 0 26.0654 0 24.9993V2.5C0 1.12126 1.12126 0 2.5 0C2.76732 0 3.02115 0.0375355 3.27497 0.116268L10.7972 2.62245C11.8209 2.97995 12.4995 3.93367 12.4995 4.99977V27.4991C12.4995 28.8778 11.3785 29.9991 9.99976 29.9991ZM2.5 1.87494C2.15623 1.87494 1.87494 2.15623 1.87494 2.5V24.9993C1.87494 25.2655 2.05369 25.5129 2.30866 25.6017L9.79584 28.0967C9.84962 28.1141 9.91966 28.1241 9.99976 28.1241C10.3435 28.1241 10.6246 27.8428 10.6246 27.4991V4.99977C10.6246 4.73359 10.4458 4.48617 10.1909 4.39737L2.7037 1.90241C2.64991 1.88501 2.57988 1.87494 2.5 1.87494Z" fill="#C3CCCB"/>
</svg>
