<?xml version="1.0" encoding="UTF-8"?>
<svg viewBox="0 0 14 16" version="1.1" xmlns="http://www.w3.org/2000/svg" xmlns:xlink="http://www.w3.org/1999/xlink">
    <g id="Рынки" stroke="none" stroke-width="1" fill="none" fill-rule="evenodd">
        <g id="0_Main_dark" transform="translate(-1195.000000, -278.000000)" fill="#C3CCCB">
            <g id="moon" transform="translate(1195.000000, 278.000000)">
                <path d="M7.51875,15.9799833 C6.59375,15.9224833 5.6825,15.7062333 4.8375,15.3437333 C4.4825,15.1924833 3.81625,14.8349833 3.60625,14.6837333 C3.57875,14.6649833 3.47125,14.5874833 3.3675,14.5137333 C3.14375,14.3562333 2.91,14.1699833 2.71625,13.9987333 C2.5125,13.8187333 2.2475,13.5687333 2.21875,13.5299833 C2.205,13.5112333 2.14,13.4374833 2.075,13.3662333 C0.54625,11.6887333 -0.19375,9.4249833 0.045,7.1562333 C0.23625,5.3324833 1.04,3.6449833 2.33875,2.3449833 C3.17,1.5137333 4.125,0.899983301 5.2325,0.487483301 C5.74,0.298733301 6.31375,0.152483301 6.8625,0.0749833006 C7.28875,0.0149833006 7.5,0.00123330062 7.9875,0.00123330062 C8.455,-1.66993779e-05 8.63625,0.0112333006 9,0.0574833006 C9.10625,0.0712333006 9.2275,0.0862333006 9.26875,0.0887333006 C9.31,0.0924833006 9.42,0.112483301 9.5125,0.132483301 C10.39625,0.332483301 10.88375,0.498733301 11.54375,0.824983301 C12.02625,1.0637333 12.38375,1.2824833 12.79375,1.5899833 C13.12,1.8349833 13.15,1.8687333 13.09,1.9287333 C13.06875,1.9499833 13.03625,1.9537333 12.79875,1.9599833 C10.62125,2.0237333 8.56625,3.0087333 7.1175,4.6812333 C5.6375,6.3912333 4.97125,8.6887333 5.30125,10.9437333 C5.57375,12.8112333 6.5125,14.5112333 7.95625,15.7549833 C8.10125,15.8799833 8.1,15.8774833 8.1,15.9199833 C8.1,15.9849833 8.0725,15.9937333 7.8675,15.9924833 C7.765,15.9912333 7.60875,15.9849833 7.51875,15.9799833 Z" id="Path" transform="translate(6.557948, 7.996867) scale(-1, 1) rotate(-180.000000) translate(-6.557948, -7.996867) "></path>
            </g>
        </g>
    </g>
</svg>