<svg width="18" height="22" viewBox="0 0 18 22" fill="none" xmlns="http://www.w3.org/2000/svg">
<path fill-rule="evenodd" clip-rule="evenodd" d="M1.19 3.2825L8.19 0.1725C8.7 -0.0575 9.3 -0.0575 9.81 0.1725L16.81 3.2825C17.53 3.6025 18 4.3225 18 5.1125V9.8125C18 15.3625 14.16 20.5525 9 21.8125C3.84 20.5525 0 15.3625 0 9.8125V5.1125C0 4.3225 0.47 3.6025 1.19 3.2825ZM16 10.8025H9V2.0025L2 5.1125V10.8125H9V19.7425C12.72 18.5925 15.47 14.9225 16 10.8025Z" fill="#27AE29"/>
</svg>
