<?xml version="1.0" encoding="UTF-8"?>
<svg width="28px" height="19px" viewBox="0 0 28 19" version="1.1" xmlns="http://www.w3.org/2000/svg" xmlns:xlink="http://www.w3.org/1999/xlink">
    <!-- Generator: Sketch 50 (54983) - http://www.bohemiancoding.com/sketch -->
    <title>soft</title>
    <defs></defs>
    <g id="Page-1" stroke="none" stroke-width="1" fill="none" fill-rule="evenodd">
        <g id="deez-pop-up-copy-2" transform="translate(-476.000000, -451.000000)" fill="#DE2233" fill-rule="nonzero">
            <g id="Group-4" transform="translate(300.000000, 86.000000)">
                <g id="Group-3" transform="translate(70.000000, 154.000000)">
                    <g id="Group-9-Copy" transform="translate(0.000000, 211.000000)">
                        <g id="flaticon1526820635-svg" transform="translate(106.000000, 0.000000)">
                            <g id="Group-11">
                                <path d="M13,9 L15,9 C15,8.44840962 14.5523662,8 14,8 C13.4476338,8 13,8.44840962 13,9 Z" id="Shape"></path>
                                <path d="M14.5,5.39962748 C16.5985515,5.39962748 18.3,7.01169288 18.3,9 L24,9 C24,4.02969785 19.7468702,0 14.5,0 C9.25312985,0 5,4.02969785 5,9 L10.7,9 C10.7,7.01169288 12.4014485,5.39962748 14.5,5.39962748 Z" id="Shape"></path>
                                <path d="M26.8797682,10 L1.12023177,10 C0.504104297,10 0,10.5063591 0,11.1252425 L0,17.8757275 C0,18.4936409 0.504104297,19 1.12023177,19 L26.8797682,19 C27.49493,19 28,18.4936409 28,17.8757275 L28,11.1252425 C28,10.5063591 27.4968614,10 26.8797682,10 Z M26.3196523,17.4149601 C26.3196523,17.6089674 26.1632062,17.7670834 25.9690971,17.7670834 L23.6639305,17.7670834 C23.4717528,17.7670834 23.3153066,17.6079974 23.3153066,17.4149601 L23.3153066,17.0851477 C23.3153066,16.8911403 23.4736842,16.7330244 23.6639305,16.7330244 L25.9690971,16.7330244 C26.1632062,16.7330244 26.3196523,16.8911403 26.3196523,17.0851477 L26.3196523,17.4149601 Z M26.3196523,15.0626213 C26.3196523,15.3720629 26.0676002,15.6252425 25.7595365,15.6252425 L2.24046354,15.6252425 C1.93239981,15.6252425 1.68034766,15.3720629 1.68034766,15.0626213 L1.68034766,11.6878638 C1.68034766,11.3793921 1.93239981,11.1252425 2.24046354,11.1252425 L25.7595365,11.1252425 C26.0676002,11.1252425 26.3196523,11.3793921 26.3196523,11.6878638 L26.3196523,15.0626213 Z" id="Shape"></path>
                            </g>
                        </g>
                    </g>
                </g>
            </g>
        </g>
    </g>
</svg>