<?xml version="1.0" encoding="UTF-8"?>
<svg width="16px" height="15px" viewBox="0 0 16 15" version="1.1" xmlns="http://www.w3.org/2000/svg" xmlns:xlink="http://www.w3.org/1999/xlink">
    <!-- Generator: Sketch 52.1 (67048) - http://www.bohemiancoding.com/sketch -->
    <title>Slice</title>
    <desc>Created with Sketch.</desc>
    <g id="Кошелёк" stroke="none" stroke-width="1" fill="none" fill-rule="evenodd">
        <g id="BACKGROUND_2-Copy">
            <path d="M2.71,0.65 L7.1,5.73 L9.85,4.02 L3.42,0.25 C3.38486908,0.234991909 3.34513092,0.234991909 3.31,0.25 L2.76,0.47 C2.72668688,0.484389511 2.70167443,0.513080865 2.69196216,0.548045043 C2.68224988,0.583009222 2.68888106,0.620490472 2.71,0.65 Z" id="Path" fill="#DD2233"></path>
            <path d="M2.77,0.46 C2.7405578,0.48272144 2.72331439,0.517809855 2.72331439,0.555 C2.72331439,0.592190145 2.7405578,0.62727856 2.77,0.65 L7.16,5.73 L9.91,4.02 L9.18,3.59 C7.9,4.74 5.5,3.84 2.77,0.46 Z" id="Path" fill="#AD1E2F"></path>
            <path d="M9.58,13.94 L8,7.42 L11,6.16 L10.36,13.59 C10.3593508,13.6291613 10.3358992,13.6643387 10.3,13.68 L9.8,14.01 C9.7703853,14.0547319 9.71467816,14.0743732 9.66355676,14.0581073 C9.61243536,14.0418414 9.57832075,13.9936205 9.58,13.94 Z" id="Path" fill="#DD2233"></path>
            <path d="M9.78,14 C9.74780301,14.0203796 9.70784061,14.0242564 9.67232677,14.0104454 C9.63681293,13.9966345 9.6099692,13.9667776 9.6,13.93 L8,7.42 L11,6.16 L10.92,7.01 C9.24,7.34 8.59,9.82 9.78,14 Z" id="Path" fill="#AD1E2F"></path>
            <path d="M2.25,8.81 C5.58,6.66 10.25,3.58 11.42,3.05 C12.59,2.52 14,2.71 14.25,3.2 C14.5,3.69 13.46,5.2 12.59,5.55 C11.72,5.9 3.52,9.3 2.69,9.66 C1.86,10.02 1.28,9.48 2.25,8.81 Z" id="Path" fill="#FFFFFF"></path>
            <path d="M8.78,6.53 C5.17,8.13 2.66,9.32 1.78,9.35 C1.67,9.72 2.12,9.91 2.71,9.66 C3.54,9.3 11.71,5.95 12.61,5.55 C13.51,5.15 14.52,3.69 14.27,3.2 C14.2571091,3.16582519 14.2365879,3.1350435 14.21,3.11 C13.77,4.09 11.19,5.46 8.78,6.53 Z" id="Path" fill="#EDEDED" style="mix-blend-mode: multiply;"></path>
            <path d="M0.91,6.72 L2.28,8.91 L3.51,8.13 L1.25,6.57 L0.97,6.65 C0.950833189,6.64384075 0.929841933,6.64977749 0.916740111,6.66506295 C0.903638288,6.68034841 0.900981817,6.70200068 0.91,6.72 Z" id="Path" fill="#DD2233"></path>
            <path d="M3.61,12 L2.61,9.6 L4,9 L4,11.74 L3.78,11.91 C3.78,11.91 3.62,12 3.61,12 Z" id="Path" fill="#DD2233"></path>
            <path d="M13.36,4.67 C13.5236534,4.4759862 13.6400407,4.24663469 13.7,4 L13.33,4.2 C13.3659069,4.35393195 13.3760443,4.51275202 13.36,4.67 Z" id="Path" fill="#8CD3F6"></path>
            <path d="M13.29,4.05 L13.73,3.82 C13.7310405,3.7006881 13.7107202,3.58215291 13.67,3.47 L13.16,3.73 C13.215273,3.83141779 13.2588842,3.93876833 13.29,4.05 Z" id="Path" fill="#8CD3F6"></path>
            <path d="M12.49,3 C12.6014987,3.07643714 12.7053184,3.16351171 12.8,3.26 L13.16,3.08 C12.9432735,3.01335974 12.716324,2.9862613 12.49,3 Z" id="Path" fill="#8CD3F6"></path>
            <path d="M12.91,3.36 C12.9747502,3.43632462 13.0348584,3.51646888 13.09,3.6 L13.59,3.34 C13.5252791,3.25291796 13.4391651,3.18402679 13.34,3.14 L12.91,3.36 Z" id="Path" fill="#8CD3F6"></path>
            <polygon id="Path" fill="#8CD3F6" points="9.27 4.42 9.41 4.69 9.74 4.5 9.6 4.22"></polygon>
            <polygon id="Path" fill="#8CD3F6" points="8.86 4.68 9 4.95 9.32 4.75 9.18 4.48"></polygon>
            <polygon id="Path" fill="#8CD3F6" points="5.59 6.79 5.67 6.95 6 6.75 5.91 6.58"></polygon>
            <polygon id="Path" fill="#8CD3F6" points="6 6.53 6.09 6.7 6.42 6.5 6.32 6.32"></polygon>
            <polygon id="Path" fill="#8CD3F6" points="7.22 5.73 7.33 5.95 7.66 5.75 7.54 5.52"></polygon>
            <polygon id="Path" fill="#8CD3F6" points="6.41 6.26 6.5 6.45 6.83 6.25 6.73 6.05"></polygon>
            <polygon id="Path" fill="#8CD3F6" points="7.63 5.47 7.75 5.7 8.08 5.5 7.95 5.26"></polygon>
            <polygon id="Path" fill="#8CD3F6" points="8 5.2 8.12 5.45 8.45 5.25 8.32 5"></polygon>
            <polygon id="Path" fill="#8CD3F6" points="8.45 4.94 8.58 5.2 8.91 5 8.77 4.74"></polygon>
            <polygon id="Path" fill="#8CD3F6" points="6.81 6 6.92 6.21 7.25 6.01 7.14 5.8"></polygon>
            <polygon id="Path" fill="#8CD3F6" points="5.18 7.06 5.26 7.2 5.59 7 5.51 6.85"></polygon>
            <polygon id="Path" fill="#8CD3F6" points="10.51 3.66 10.66 3.94 10.98 3.75 10.84 3.47"></polygon>
            <polygon id="Path" fill="#8CD3F6" points="11.21 3.26 10.93 3.42 11.07 3.69 11.35 3.52"></polygon>
            <polygon id="Path" fill="#8CD3F6" points="10.09 3.91 10.24 4.19 10.57 4 10.42 3.71"></polygon>
            <polygon id="Path" fill="#8CD3F6" points="4.78 7.33 4.84 7.45 5.17 7.25 5.1 7.11"></polygon>
            <polygon id="Path" fill="#8CD3F6" points="4.4 7.57 4.46 7.68 4.76 7.5 4.69 7.38"></polygon>
            <polygon id="Path" fill="#8CD3F6" points="9.68 4.17 9.83 4.44 10.15 4.25 10 4"></polygon>
            <polygon id="Path" fill="#8CD3F6" points="10.3 6.41 10.16 6.14 10.51 5.98 10.65 6.26"></polygon>
            <polygon id="Path" fill="#8CD3F6" points="9.85 6.59 9.71 6.33 10.06 6.18 10.2 6.45"></polygon>
            <polygon id="Path" fill="#8CD3F6" points="6.24 8 6.16 7.84 6.51 7.69 6.6 7.86"></polygon>
            <polygon id="Path" fill="#8CD3F6" points="6.69 7.86 6.6 7.69 6.95 7.54 7.05 7.72"></polygon>
            <polygon id="Path" fill="#8CD3F6" points="8.05 7.32 7.93 7.11 8.29 6.95 8.4 7.18"></polygon>
            <polygon id="Path" fill="#8CD3F6" points="7.14 7.68 7.04 7.49 7.4 7.34 7.5 7.54"></polygon>
            <polygon id="Path" fill="#8CD3F6" points="8.5 7.14 8.38 6.91 8.73 6.76 8.85 7"></polygon>
            <polygon id="Path" fill="#8CD3F6" points="9 7 8.87 6.76 9.22 6.6 9.35 6.86"></polygon>
            <polygon id="Path" fill="#8CD3F6" points="9.4 6.78 9.27 6.52 9.62 6.37 9.75 6.63"></polygon>
            <polygon id="Path" fill="#8CD3F6" points="7.59 7.5 7.49 7.3 7.84 7.15 7.95 7.36"></polygon>
            <polygon id="Path" fill="#8CD3F6" points="5.78 8.22 5.71 8.08 6.06 7.92 6.14 8.08"></polygon>
            <polygon id="Path" fill="#8CD3F6" points="11.64 5.84 11.49 5.55 11.84 5.4 11.99 5.68"></polygon>
            <polygon id="Path" fill="#8CD3F6" points="12.37 5.49 12.08 5.64 11.93 5.36 12.23 5.23"></polygon>
            <polygon id="Path" fill="#8CD3F6" points="11.19 6 11.05 5.72 11.4 5.56 11.54 5.85"></polygon>
            <polygon id="Path" fill="#8CD3F6" points="5.33 8.4 5.27 8.27 5.62 8.12 5.69 8.26"></polygon>
            <polygon id="Path" fill="#8CD3F6" points="4.91 8.56 4.91 8.45 5.22 8.31 5.29 8.43"></polygon>
            <polygon id="Path" fill="#8CD3F6" points="10.74 6.22 10.6 5.94 10.95 5.79 11.1 6.07"></polygon>
            <path d="M1.07,6.6 L0.93,6.6 C0.917409708,6.60944272 0.91,6.62426213 0.91,6.64 C0.91,6.65573787 0.917409708,6.67055728 0.93,6.68 L2.3,8.87 L3.53,8.09 L3.26,7.91 C2.61,8.51 1.55,7.94 1.07,6.6 Z" id="Path" fill="#AD1E2F"></path>
            <path d="M3.8,11.87 L3.69,11.96 C3.69,11.96 3.62,11.96 3.61,11.96 L2.61,9.56 L4,9 L4,9.32 C3.13,9.52 3,10.71 3.8,11.87 Z" id="Path" fill="#AD1E2F"></path>
        </g>
    </g>
</svg>