<svg width="30" height="30" viewBox="0 0 30 30" fill="none" xmlns="http://www.w3.org/2000/svg">
<path opacity="0.5" d="M5.49116 13.0003C3.19035 11.2997 3.99994 8.00001 4.991 6.77599C5.49116 7.27615 5.19105 6.99811 6.09137 7.54827C4.79088 6.69794 3.64051 5.74762 2.49008 4.49719C0.589375 8.19854 2.69013 11.2997 4.991 13.0003" fill="#C3CCCB"/>
<path d="M28.8997 5.99774L28.1995 6.24785C27.6993 7.39828 25.3004 8.49983 23.9999 8.99999V9.50015C22.9999 17.5 19.6861 23.5958 12.4939 26.205C11.9937 26.305 12.2437 26.405 12.4939 26.4551C20.3467 25.6047 26.4989 18.3522 26.4989 9.49898V8.99882C27.8494 8.49866 28.5996 7.29823 28.9998 6.0978C28.9998 6.0478 28.9497 5.99774 28.8997 5.99774Z" fill="#DD2233"/>
<path opacity="0.5" d="M4.84995 23.8001C4.74989 23.7001 4.79995 23.5 5 23.5C5.5 23 7.39209 22.7037 8.99262 21.5033C6 20 5.5 20 4.60695 18.0972C5.11632 18.9451 3.54062 18.0021 3.64068 18.0521C5.09122 18.9524 5.49133 18.0521 7.49208 18.0521C5.24127 17.4019 4.5 14 4 13C3.49984 12.85 1.58998 12.3 1.18982 11.9499C1.08976 11.8999 0.989766 11.9499 1.03976 12.0499C1.89009 15.151 4.79111 17.4019 7.04192 18.0521C4.99117 18.0521 3.64068 18.3522 2.1902 17.4519C2.04014 17.3518 1.94009 17.4019 1.99015 17.5019C3.09052 20.5529 5.29133 21.5033 8.49246 21.5033C6.89187 22.7037 4.74111 23.9042 0.689659 24.0042C0.539605 24.0042 0.439549 24.2043 0.589603 24.3043C2.09014 25.5548 5.79149 26.5052 10.9933 26.5052C11.1434 26.5052 11.2934 26.5052 11.4435 26.5052C6.79187 26.3551 6.30049 24.9506 4.84995 23.8001Z" fill="#C3CCCB"/>
<path d="M10.9933 27.0053C6.04147 27.0053 2.04001 26.155 0.239367 24.7045C0.0393144 24.5044 -0.0607411 24.2543 0.0393144 23.9542C0.13937 23.7041 0.389421 23.5041 0.689528 23.5041C3.64061 23.4541 5.54125 22.7538 6.99179 21.9035C4.19077 21.5534 2.44018 20.2029 1.53985 17.652C1.4398 17.4019 1.53985 17.1518 1.73991 17.0018C1.93996 16.8517 2.24007 16.8517 2.44018 16.9518C3.19045 17.4519 3.94072 17.552 4.84104 17.552C2.94034 16.4015 1.18975 14.5009 0.489476 12.15C0.439478 11.8999 0.539475 11.6499 0.739586 11.4998C0.989695 11.3498 1.23975 11.3998 1.43986 11.5498C1.99007 12 2.59029 12.3001 3.49061 12.4501C1.53991 10.4494 0.339481 7.49836 2.04007 4.24717C2.14013 4.14711 2.24012 4.04712 2.44024 3.99706C2.59029 3.99706 2.74034 4.04706 2.8904 4.14711C5.99153 7.3983 8.84256 8.89884 14.0444 9.89916V9.69911C13.9943 6.04782 16.8454 3.04674 20.3966 2.99668C21.7971 2.99668 23.7478 3.99706 24.5481 4.44722C24.5981 4.44722 24.6482 4.49722 24.6482 4.44722C25.6485 4.14711 26.849 3.64695 28.2495 3.04674C28.4495 2.94668 28.6996 2.99674 28.8497 3.14679C28.9997 3.29685 29.0497 3.4969 28.9497 3.69701C28.6996 4.39728 28.2995 5.14755 27.6993 5.84776L28.6997 5.49766C28.8997 5.44766 29.1498 5.49766 29.2999 5.64771C29.4499 5.79777 29.4999 6.04787 29.4499 6.24793C28.9998 7.69847 28.0995 8.74884 26.9991 9.299V9.49906C26.9991 10.8995 26.849 12.25 26.5489 13.6005C26.4989 13.8506 26.1988 14.0507 25.9487 14.0007C25.6986 13.9507 25.4985 13.6506 25.5485 13.4005C25.8486 12.15 25.9487 10.7995 25.9487 9.49906V8.9989C25.9487 8.79884 26.0988 8.59873 26.2488 8.54873C27.1991 8.19863 27.7493 7.44836 28.0995 6.79809L26.1488 7.4483C25.8986 7.54836 25.5985 7.4483 25.4985 7.19819C25.4485 6.94808 25.4985 6.64797 25.6986 6.49792C26.4989 5.84771 27.0991 5.14743 27.5492 4.39716C26.5489 4.79733 25.6485 5.14743 24.8983 5.39754C24.5982 5.4976 24.2981 5.44754 23.9979 5.29749C23.4477 4.99738 21.5971 3.997 20.4466 3.997C20.4466 3.997 20.4466 3.997 20.3966 3.997C17.3956 4.047 14.9947 6.59792 14.9947 9.69905V10.4993C14.9947 10.6494 14.9447 10.7994 14.7947 10.8995C14.6946 10.9995 14.5445 10.9995 14.3945 10.9995C8.8925 9.99916 5.84142 8.54868 2.64029 5.39754C1.13975 9.19889 4.24088 11.8499 5.29126 12.6001C5.49131 12.7502 5.54137 12.9502 5.49131 13.1503C5.44131 13.3504 5.19121 13.5005 4.99115 13.5005C3.99077 13.5005 2.8904 13.4004 1.89002 12.9502C2.99039 15.251 5.2412 16.9517 7.14191 17.5019C7.39202 17.5519 7.54207 17.802 7.49201 18.0521C7.44201 18.3022 7.2419 18.5022 6.99185 18.5022C6.59169 18.5022 6.19158 18.5022 5.79142 18.5522C4.74104 18.6022 3.79072 18.6022 2.8904 18.3021C3.89078 20.2028 5.64137 21.0031 8.49239 21.0031C8.69244 21.0031 8.89255 21.1531 8.99255 21.3532C9.04255 21.5533 8.99255 21.8034 8.7925 21.9034C7.1919 23.1038 5.19121 24.2042 1.73996 24.4543C3.39056 25.2546 6.44163 26.0049 10.9933 26.0049C16.7454 26.0049 21.8972 22.4536 24.4482 16.8016C24.5482 16.5515 24.8483 16.4515 25.0984 16.5515C25.3485 16.6515 25.4485 16.9516 25.3485 17.2017C22.6474 23.254 17.1455 27.0053 10.9933 27.0053Z" fill="#C3CCCB"/>
<path d="M25.9987 15.5012C25.9987 15.2011 25.7987 15.001 25.4986 15.001C25.1985 15.001 24.9984 15.2011 24.9984 15.5012C24.9984 15.8013 25.1985 16.0014 25.4986 16.0014C25.7986 16.0014 25.9987 15.8013 25.9987 15.5012Z" fill="#C3CCCB"/>
</svg>
