<?xml version="1.0" encoding="UTF-8"?>
<svg width="26px" height="20px" viewBox="0 0 26 20" version="1.1" xmlns="http://www.w3.org/2000/svg" xmlns:xlink="http://www.w3.org/1999/xlink">
    <!-- Generator: Sketch 50 (54983) - http://www.bohemiancoding.com/sketch -->
    <title>wifi</title>
    <desc>Created with Sketch.</desc>
    <defs></defs>
    <g id="Page-1" stroke="none" stroke-width="1" fill="none" fill-rule="evenodd">
        <g id="deez-pop-up-copy-2" transform="translate(-788.000000, -449.000000)" fill="#DE2233" fill-rule="nonzero">
            <g id="Group-4" transform="translate(300.000000, 86.000000)">
                <g id="Group-3" transform="translate(70.000000, 154.000000)">
                    <g id="Group-10-Copy" transform="translate(280.000000, 205.000000)">
                        <g id="flaticon1526821341-svg" transform="translate(138.000000, 4.000000)">
                            <path d="M25.7,5.3 C22.4,2 18,0 13,0 C8,0 3.5,2 0.3,5.3 C0.1,5.5 0,5.7 0,6 C0,6.3 0.1,6.5 0.3,6.7 L1.7,8.1 C2.1,8.5 2.7,8.5 3.1,8.1 C5.6,5.6 9.1,4 13,4 C16.9,4 20.4,5.6 22.9,8.1 C23.3,8.5 23.9,8.5 24.3,8.1 L25.7,6.7 C25.9,6.5 26,6.3 26,6 C26,5.7 25.9,5.4 25.7,5.3 Z" id="Shape"></path>
                            <path d="M13.3,8 C10.5,8 8.1,9.1 6.3,10.9 C5.9,11.3 5.9,11.9 6.3,12.3 L7.7,13.7 C8.1,14.1 8.7,14.1 9.1,13.7 C10.2,12.6 11.7,12 13.3,12 C14.9,12 16.4,12.7 17.5,13.7 C17.9,14.1 18.5,14.1 18.9,13.7 L20.3,12.3 C20.7,11.9 20.7,11.3 20.3,10.9 C18.5,9.1 16.1,8 13.3,8 Z" id="Shape"></path>
                            <circle id="Oval" cx="13" cy="18" r="2"></circle>
                        </g>
                    </g>
                </g>
            </g>
        </g>
    </g>
</svg>