<svg width="31" height="32" viewBox="0 0 31 32" fill="none" xmlns="http://www.w3.org/2000/svg">
<path fill-rule="evenodd" clip-rule="evenodd" d="M17.4504 19.647V6.74538H19.7297C20.0187 6.73924 20.2769 6.5634 20.3885 6.29675C20.5001 6.03011 20.4442 5.72274 20.2457 5.51256L15.9452 1.21202C15.8106 1.07632 15.6274 1 15.4363 1C15.2452 1 15.062 1.07632 14.9274 1.21202L10.6269 5.51256C10.4158 5.71595 10.3499 6.02734 10.4604 6.29882C10.5709 6.57029 10.8355 6.74715 11.1286 6.74538H13.4509V19.647C13.4585 20.0396 13.775 20.3561 14.1676 20.3638H16.791C17.1643 20.3338 17.4516 20.0215 17.4504 19.647Z" fill="#DD2233"/>
<path fill-rule="evenodd" clip-rule="evenodd" d="M17.4504 19.647V6.74538H19.7296C20.0186 6.73924 20.2769 6.5634 20.3885 6.29675C20.5001 6.03011 20.4441 5.72274 20.2457 5.51256L15.9452 1.21202C15.8106 1.07632 15.6274 1 15.4363 1C15.2452 1 15.062 1.07632 14.9274 1.21202L18 6.36377C17.8895 6.09229 17.789 6.56717 18 6.36377C17.7069 6.36554 18.1105 6.63525 18 6.36377L15.4508 6.74538V19.647C15.4585 20.0396 15.775 20.3561 16.1676 20.3638H16.7909C17.1642 20.3338 17.4516 20.0215 17.4504 19.647Z" fill="#BD1524"/>
<path fill-rule="evenodd" clip-rule="evenodd" d="M17.4504 19.647V6.74538H19.7297C20.0187 6.73924 20.2769 6.5634 20.3885 6.29675C20.5001 6.03011 20.4442 5.72274 20.2457 5.51256L15.9452 1.21202C15.8106 1.07632 15.6274 1 15.4363 1C15.2452 1 15.062 1.07632 14.9274 1.21202L10.6269 5.51256C10.4158 5.71595 10.3499 6.02734 10.4604 6.29882C10.5709 6.57029 10.8355 6.74715 11.1286 6.74538H13.4509V19.647C13.4585 20.0397 13.775 20.3561 14.1676 20.3638H16.791C17.1643 20.3338 17.4516 20.0215 17.4504 19.647Z" stroke="#C3CCCB"/>
<path d="M3.2773 27.4391C3.2773 24.7572 3.2773 21.8971 3.2773 21.8971L1.71676 21.6965C1.52799 21.6926 1.34562 21.7649 1.21078 21.8971C1.07593 22.0292 0.999961 22.2101 1 22.3989V30.2832C1 30.6791 1.3209 31 1.71676 31H28.9535C29.3494 31 29.6703 30.6791 29.6703 30.2832V27.5C28.7315 27.5 3.2773 27.4391 3.2773 27.4391Z" fill="#828282"/>
<path d="M28.9535 21.7395H21.0692C20.6733 21.7395 20.3524 22.0604 20.3524 22.4563V23.1157C20.3524 23.5115 20.0315 23.8324 19.6357 23.8324H11.0346C10.6387 23.8324 10.3178 23.5115 10.3178 23.1157V22.3989C10.3179 22.2101 10.2419 22.0292 10.1071 21.8971C9.97222 21.7649 9.78985 21.6926 9.60108 21.6965H1.71676C1.52799 21.6926 1.34562 21.7649 1.21078 21.8971C1.07593 22.0292 0.999961 22.2101 1 22.3989V30.2832C1 30.6791 1.3209 31 1.71676 31H28.9535C29.3494 31 29.6703 30.6791 29.6703 30.2832V22.3989C29.6473 22.0223 29.3308 21.7311 28.9535 21.7395Z" stroke="#C3CCCB"/>
<path d="M23.076 28.348C22.4822 28.348 22.0009 27.8667 22.0009 27.2729C22.0009 26.6791 22.4822 26.1978 23.076 26.1978C23.6698 26.1978 24.1511 26.6791 24.1511 27.2729C24.1434 27.8634 23.6665 28.3403 23.076 28.348Z" fill="#DD2233"/>
<path d="M25.9431 28.348C25.3493 28.348 24.8679 27.8667 24.8679 27.2729C24.8679 26.6791 25.3493 26.1978 25.9431 26.1978C26.5368 26.1978 27.0182 26.6791 27.0182 27.2729C27.0105 27.8634 26.5336 28.3403 25.9431 28.348Z" fill="#DD2233"/>
</svg>
