<svg width="30" height="30" viewBox="0 0 30 30" fill="none" xmlns="http://www.w3.org/2000/svg">
<path opacity="0.5" d="M3.25538 24.3657C2.45406 23.4141 2.20362 21.2605 2.20362 21.2605C2.20362 21.2605 1.95319 18.7062 1.95319 16.202V13.8481C1.95319 11.2938 2.20362 8.78964 2.20362 8.78964C2.20362 8.78964 2.45406 6.58595 3.25538 5.63438C4.25706 4.38232 5.35888 4.38232 5.8597 4.33219C9.51577 4.03169 14.9749 3.98163 14.9749 3.98163C14.9749 3.98163 8.8647 4.03169 4.80794 4.33219C4.25701 4.38237 3.00494 4.43244 1.90312 5.63444C1.05168 6.58601 0.751184 8.73963 0.751184 8.73963C0.751184 8.73963 0.450684 11.2939 0.450684 13.8481V16.2021C0.450684 18.7563 0.751184 21.2605 0.751184 21.2605C0.751184 21.2605 1.05168 23.4141 1.90312 24.3657C3.00494 25.6178 4.45738 25.5677 5.10844 25.718C7.41226 25.9684 14.9749 26.0185 14.9749 26.0185C14.9749 26.0185 8.21364 25.9684 6.11013 25.718C5.5592 25.5677 4.25701 25.6177 3.25538 24.3657Z" fill="#C3CCCB"/>
<path opacity="0.5" d="M29.1986 8.73958C29.1986 8.73958 28.8981 6.58601 28.0466 5.63438C26.9448 4.38232 25.6927 4.38232 25.1418 4.33219C21.0851 4.03169 14.9749 3.98163 14.9749 3.98163C14.9749 3.98163 20.4339 4.03169 24.0901 4.33219C24.5909 4.38226 25.6927 4.43238 26.6944 5.63438C27.4957 6.58595 27.7461 8.73958 27.7461 8.73958C27.7461 8.73958 27.9966 11.2938 27.9966 13.8481V16.202C27.9966 18.7563 27.7461 21.2605 27.7461 21.2605C27.7461 21.2605 27.4957 23.414 26.6944 24.3657C25.6927 25.6177 24.5909 25.6177 24.0901 25.6679C22.1368 25.8181 19.6827 25.9183 17.7795 25.9684C19.8831 25.9183 22.838 25.8682 25.1418 25.6679C25.6927 25.6178 26.9448 25.5677 28.0466 24.3657C28.8981 23.4141 29.1986 21.2605 29.1986 21.2605C29.1986 21.2605 29.4991 18.7563 29.4991 16.202V13.8481C29.4991 11.2938 29.1986 8.73958 29.1986 8.73958Z" fill="#C3CCCB"/>
<path d="M11.4691 9.94159V20.8097L20.985 15.5009L11.4691 9.94159Z" fill="#DD2233"/>
<path d="M12 10V21L13.5 19.5V11.5L12 10Z" fill="#BD1524"/>
<path d="M14.975 26.5192C14.6745 26.5192 7.36227 26.419 5.05845 26.2187C4.9082 26.1686 4.80801 26.1686 4.65776 26.1686C3.85644 26.0684 2.60432 25.9182 1.55257 24.7162C0.601001 23.6644 0.300501 21.4607 0.300501 21.3606C0.300501 21.3106 0 18.7563 0 16.2521V13.8982C0 11.3439 0.300501 8.78966 0.300501 8.78966C0.300501 8.68947 0.601001 6.43572 1.60269 5.38397C2.70451 4.1319 3.95657 3.98165 4.65776 3.93159H4.80801C5.85976 3.8314 7.11183 3.78134 8.5142 3.73127C8.8147 3.73127 9.01502 3.93159 9.01502 4.23209C9.01502 4.53259 8.8147 4.7329 8.5142 4.7329C7.11189 4.78297 5.85976 4.83309 4.85813 4.93322H4.70788C4.10682 4.88315 3.15526 4.98334 2.25375 5.98497C1.60269 6.68616 1.30219 8.28879 1.202 8.83972C1.202 8.83972 0.901502 11.3439 0.901502 13.848V16.202C0.901502 18.6561 1.202 21.1602 1.202 21.2103C1.25207 21.7612 1.60269 23.3639 2.20369 24.015C3.00501 24.9165 4.00669 25.0668 4.70788 25.1168C4.85813 25.1168 5.00838 25.1669 5.15863 25.1669C7.41239 25.4173 14.9249 25.5174 14.975 25.5174C15.025 25.5174 21.0852 25.5175 25.0918 25.2169H25.2421C25.793 25.1669 26.7946 25.0667 27.6461 24.065C28.2971 23.3638 28.5976 21.7612 28.6978 21.2103C28.6978 21.2103 28.9983 18.7061 28.9983 16.2019V13.848C28.9983 11.3939 28.6978 8.88973 28.6978 8.83966C28.6477 8.28873 28.2971 6.6861 27.6961 6.03497C26.8447 5.0334 25.8431 4.93322 25.2921 4.88315H25.0918C21.0851 4.53259 15.025 4.48246 14.975 4.48246C14.975 4.48246 13.3723 4.48246 12.4708 4.48246C12.1703 4.48246 11.97 4.28215 11.97 3.98165C11.97 3.68115 12.1703 3.48083 12.4708 3.48083C13.3723 3.48083 14.975 3.48083 14.975 3.48083C15.0752 3.48083 21.1352 3.5309 25.192 3.8314H25.3923C26.0434 3.88146 27.2955 4.03171 28.4474 5.28384C29.3989 6.33559 29.6994 8.53928 29.6994 8.63941C29.6994 8.68947 29.9999 11.2437 29.9999 13.7479V16.1019C29.9999 18.6561 29.6994 21.2104 29.6994 21.2104C29.6994 21.3106 29.3989 23.5643 28.3973 24.6161C27.2954 25.8681 26.0433 26.0184 25.3422 26.0685H25.1919C21.1352 26.5192 15.025 26.5192 14.975 26.5192Z" fill="#C3CCCB"/>
<path d="M10.9683 3.98165C10.9683 3.68115 10.768 3.48083 10.4675 3.48083C10.167 3.48083 9.96667 3.68115 9.96667 3.98165C9.96667 4.28215 10.167 4.48246 10.4675 4.48246C10.768 4.48246 10.9683 4.28215 10.9683 3.98165Z" fill="#C3CCCB"/>
<path d="M11.469 21.3105C11.3688 21.3105 11.3188 21.3105 11.2186 21.2604C11.0683 21.1603 10.9681 21.01 10.9681 20.8097V9.9416C10.9681 9.74129 11.0683 9.59104 11.2186 9.49085C11.3688 9.39066 11.5691 9.39066 11.7194 9.49085L21.2352 15.0501C21.3855 15.1503 21.4857 15.3005 21.4857 15.5009C21.4857 15.7012 21.3855 15.8514 21.2352 15.9516L11.7194 21.2604C11.6193 21.3105 11.5692 21.3105 11.469 21.3105ZM11.9699 10.793V19.9583L19.9832 15.5008L11.9699 10.793Z" fill="#C3CCCB"/>
</svg>
