{
    "why": [
      {
        "title": {
          "en": "Low comission fees",
          "ru": "Низкие комиссии",
          "tr": "Düşük komisyonlar",
          "zh": "-"
        },
        "text": {
          "en": "Trade commissions are fixed and determined by the network’s transaction fee. High trading volume is much cheaper than on the centralized exchanges. ",
          "ru": "Фиксированная торговая комиссия ограничена стоимостью транзакций в сети. Торговля большими объемами дешевле, чем на централизованных биржах.",
          "tr": "Sabit ticaret komisyonu, ağ işlemlerin maliyeti ile sınırlıdır. Büyük hacimlerde işlem yapmak, merkezi borsalardan daha ucuzdur.",
          "zh": "-"
        }
      },{
        "title": {
          "en": "The best referral program",
          "ru": "Лучшая реферальная программа ",
          "tr": "En iyi referans programı",
          "zh": "-"
        },
        "text": {
          "en": "Three-level referral program: 10% of commissions from the direct referrals, 5% - from commissions of 2nd and 3rd - level referrals.",
          "ru": "Трехуровневая реферальная программа: 10% от комиссий пользователей, 5% - от комиссий рефералов второго и третьего уровней.",
          "tr": "Üç seviyeli referans programı: davet edilen kullanıcıların komisyonlarının % 10'u, İkinci ve üçüncü seviye davetli kullanıcıların% 5 komisyonu.",
          "zh": "-"
        }
      },{
        "title": {
          "en": "Full anonymity - no KYC / AML",
          "ru": "Полная анонимность. KYC / AML не требуется.",
          "tr": "Tamamen anonimlik. KYC / AML gerektirmez.",
          "zh": "-"
        },
        "text": {
          "en": "We never ask our customers to verify the identity.",
          "ru": "Мы не требуем от клиентов подтверждения личности.",
          "tr": "Kullanıcılardan kimlik doğrulanması istenmiyor.",
          "zh": "-"
        }
      },{
        "title": {
          "en": "Stealth transactions",
          "ru": "Stealth-транзакции",
          "tr": "Stealth işlemler",
          "zh": "-"
        },
        "text": {
          "en": "You can anonymize your transactions, so they are not visible in blockchain.  ",
          "ru": "Возможность осуществлять скрытые транзакции, которые не будут видны в блокчейне.",
          "tr": "Blockchain'de görünmeyecek olan gizli işlemleri gerçekleştirme olanağı.",
          "zh": "-"
        }
      },{
        "title": {
          "en": "Nodes leasing for passive income",
          "ru": "Пассивный доход от аренды нод",
          "tr": "Node kiralama ile pasif gelir",
          "zh": "-"
        },
        "text": {
          "en": "20% guaranteed income for DEEX nodes leasing.",
          "ru": "Арендуйте ноду DEEX и получайте гарантированные 20% в год.",
          "tr": "Bir DEEX node kiralayın ve yılda % 20 garantili alın. ",
          "zh": "20% guaranteed income for DEEX nodes leasing."
        }
      },{
        "title": {
          "en": "Secure 2FA on blockchain",
          "ru": "Двухфакторная аутентификация на блокчейне",
          "tr": "Blockchain'de iki faktörlü doğrulama",
          "zh": "-"
        },
        "text": {
          "en": "The maximum protection level for your account.",
          "ru": "Максимальная защита вашего аккаунта и ваших средств.",
          "tr": "Hesabınızı ve paranızı maksimum koruma.",
          "zh": "-"
        }
      }
    ],
    "b2b": [
      {
        "image": "b2b-1.png",
        "title": "IEO",
        "text": {
          "en": "Digital assets creation and crowdfunding campaigns",
          "ru": "Создание цифровых токенов и проведение краудфандинговых кампаний",
          "tr": "Dijital tokenler oluşturmak ve kitle fonlaması (crowdfunding) kampanyaları yürütmek",
          "zh": "-"
        },
        "link" : [
          {
            "params": {
              "to": "/ieo"
            },
            "title": "https://www.haqq.exchange/ieo"
          }
        ]
      },{
        "image": "b2b-2.png",
        "title": {
          "en": "Blockchain voting",
          "ru": "Блокчейн голосование",
          "tr": "Blockchain oylama",
          "zh": "-"
        },
        "text": {
          "en": "Transparent and fair voting system. For example, among shareholders or local communities. DEEX listing voting.",
          "ru": "Честное и прозрачное голосование, например, среди акционеров компании или ТСЖ. Голосование за листинг проектов на DEEX.",
          "tr": "Örneğin, bir şirketin veya ev sahibi derneğin hissedarları arasında adil ve şeffaf oy kullanma. DEEX'te projelerin listelenmesi için oylama.",
          "zh": "-"
        },
        "target" : [
          {
            "params": {
              "href": "https://deex.vote/",
              "target": "_blank"
            },
            "title": "https://deex.vote/"
          }
        ]
      },{
        "image": "b2b-3.png",
        "label": {
          "style": {"backgroundColor": "#dd2233"},
          "text": {
            "en": "Coming soon! \uD83D\uDE80",
            "ru": "Скоро! \uD83D\uDE80",
            "tr": "Çok yakında! \uD83D\uDE80",
            "zh": "-"
          }
        },
        "title": {
          "en": "DEEX messenger",
          "ru": "DEEX мессенджер",
          "tr": "DEEX messenger",
          "zh": "-"
        },
        "text": {
          "en": "Secure encrypted messenger for financial industry ",
          "ru": "Безопасный криптографический мессенджер для финансовой сферы",
          "tr": "Finans sektörü için güvenli kriptografi messenger",
          "zh": "-"
        }
      },{
        "image": "b2b-4.png",
        "title": {
          "en": "Blockchain auction",
          "ru": "Блокчейн аукцион",
          "tr": "Blockchain artırma",
          "zh": "-"
        },
        "text": {
          "en": "Easy and transparent procurement solution",
          "ru": "Честный и прозрачный способ проводить закупки на блокчейне",
          "tr": "Blockchain'de ihale yapmanın dürüst ve şeffaf bir yolu",
          "zh": "-"
        },
        "target" : [
          {
            "params": {
              "href": "https://auction.deex.vote/",
              "target": "_blank"
            },
            "title": "https://auction.deex.vote"
          }
        ]
      },{
        "image": "b2b-5.png",
        "title": {
          "en": "DEEX cryptomat",
          "ru": "Криптомат DEEX",
          "tr": "DEEX Kriptomatı",
          "zh": "-"
        },
        "text": {
          "en": "Cryptomat is a unique software and hardware complex allowing to launch self-service devices to exchange fiat and digital funds. Cryptomat is an access to the world of crypto “on the ground”.",
          "ru": "Программно-аппаратный комплекс, позволяющий принимать криптовалютные платежи \"на земле\". Обмен фиата на криптовалюту через привычное устройство платежного терминала / банкомата.",
          "tr": "Kripto para ödemelerini kabul etmenizi sağlayan donanım ve yazılım sistemi. Alışılmış cihaz ödeme terminali / ATM aracılığıyla kripto para birimi için Fiat değişimi yapın.",
          "zh": "-"
        },
        "button": {
          "type": "sendEmail",
          "service": "cryptomat",
          "color": "btn-blue",
          "text": {
            "en": "Buy",
            "ru": "Купить",
            "tr": "Satın almak",
            "zh": "-"
          }
        }
      },{
        "image": "b2b-6.png",
        "title": {
          "en": "DEEX invoicing",
          "ru": "DEEX инвойсинг",
          "tr": "Deex faturalandırma (invoice)",
          "zh": "-"
        },
        "text": {
          "en": "A simple solution to accept cryptopayments",
          "ru": "Удобное решение для приема криптовалютных платежей",
          "tr": "Kripto para ödemelerini kabul etmek için uygun bir çözüm",
          "zh": "-"
        },
        "target" : [
          {
            "params": {
              "href": "https://deex.exchange/landing/invoicing/",
              "target": "_blank",
              "className": "btn btn-blue"
            },
            "title": {
              "en": "Connect",
              "ru": "Подключить",
              "tr": "Bağlamak",
              "zh": "-"
            }
          }
        ]
      },{
        "image": "b2b-7.png",
        "title": {
          "en": "DEEX store",
          "ru": "DEEX витрина",
          "tr": "DEEX store",
          "zh": "-"
        },
        "text": {
          "en": "Decentralized blockchain marketplace",
          "ru": "Децентрализованный маркетплейс на блокчейне",
          "tr": "Blockchain'de merkezi olmayan marketplace",
          "zh": "-"
        },
        "target" : [
          {
            "params": {
              "href": "https://deex.store/",
              "target": "_blank"
            },
            "title": "https://deex.store"
          }
        ]
      },{
        "image": "b2b-8.png",
        "title": "DEEX whitelabel",
        "text": {
          "en": "Everything you need to run a crypto exchange",
          "ru": "Возможность получить движок и все необходимое для запуска крипто-биржи \"под ключ\"",
          "tr": "Motoru ve kripto borsa yapmak için ihtiyacınız olan her şeyi \"anahtar teslim\" olarak sağlanır",
          "zh": "-"
        },
        "target" : [
          {
            "params": {
              "href": "https://deex.exchange/landing/white_label/",
              "target": "_blank",
              "className": "btn btn-blue"
            },
            "title": {
              "en": "Buy",
              "ru": "Купить",
              "tr": "Satın almak",
              "zh": "-"
            }
          }
        ]
      },{
        "image": "b2b-9.png",
        "title": "DEEX PAY",
        "text": {
          "en": "A service for paying for any goods and services using a universal cryptocurrency invoicing system.",
          "ru": "Сервис по оплате любых товаров и услуг с помощью универсальной системы криптовалютного инвойсинга. ",
          "tr": "Evrensel cryptocurrency fatura sistemi ile herhangi bir mal ve hizmet için ödeme hizmeti.",
          "zh": "-"
        },
        "target" : [
          {
            "params": {
              "href": "https://deex.exchange/landing/pay/",
              "target": "_blank",
              "className": "btn btn-blue"
            },
            "title": {
              "en": "Connect",
              "ru": "Подключить",
              "tr": "Bağlamak",
              "zh": "-"
            }
          }
        ]
      },{
        "image": "b2b-10.png",
        "title": "DEEX merchant",
        "text": {
          "en": "Payment service for any goods and services using a universal cryptocurrency billing system.",
          "ru": "Мерчант - это возможность развивать свой бизнес в интернете, добавив онлайн платежи на свой сайт. ",
          "tr": "Kripto para birimi için evrensel bir faturalama sistemi kullanarak herhangi bir mal ve hizmet için ödeme hizmeti.",
          "zh": "-"
        },
        "target" : [
          {
            "params": {
              "href": "https://deex.exchange/landing/merchant/",
              "target": "_blank",
              "className": "btn btn-blue"
            },
            "title": {
              "en": "Connect",
              "ru": "Подключить",
              "tr": "Bağlamak",
              "zh": "-"
            }
          }
        ]
      }
    ],
    "b2c": [
      {
        "image": "b2c-1.png",
        "title": {
          "en": "DEEX decentralized exchange",
          "ru": "Децентрализованная биржа DEEX",
          "tr": "Merkezi olmayan DEEX borsası",
          "zh": "-"
        },
        "text": {
          "en": "Single solution to deposit, withdraw and trade crypto and fiat assets",
          "ru": "Решение для ввода, вывода, торговли и Р2Р-обмена криптовалютными и фиатными активами",
          "tr": "Yatırım, para çekme, ticaret ve P2P kripto para birimi ve fiat varlık alışverişi için çözüm",
          "zh": "-"
        },
        "target" : [
          {
            "params": {
              "href": "https://deex.exchange",
              "target": "_blank"
            },
            "title": "https://deex.exchange"
          }
        ]
      },{
        "image": "b2c-2.png",
        "title": {
          "en": "Blockchain gaming app",
          "ru": "Игровое приложение на блокчейне",
          "tr": "Blockchain'de oyun uygulaması",
          "zh": "-"
        },
        "text": {
          "en": "Framework for blockchain gaming. For example, predictions or betting market.",
          "ru": "Фреймворк для игровых проектов на блокчейне. Например, ставок на события.",
          "tr": "Blockchain'de oyun projeleri için framework. Örneğin, etkinlik üzerine bahisler.",
          "zh": "-"
        },
        "target" : [
          {
            "params": {
              "href": "https://loto.deex.exchange",
              "target": "_blank"
            },
            "title": "https://loto.deex.exchange"
          },{
            "params": {
              "href": "https://cryptodragons.fun/",
              "target": "_blank"
            },
            "title": "https://cryptodragons.fun"
          }
        ]
      },{
        "image": "b2c-3.png",
        "label": {
          "style": {"backgroundColor": "#dd2233"},
          "text": {
            "en": "Coming soon! \uD83D\uDE80",
            "ru": "Скоро! \uD83D\uDE80",
            "tr": "Çok yakında! \uD83D\uDE80",
            "zh": "-"
          }
        },
        "title": {
          "en": "Crypto exchange in Telegram",
          "ru": "Обменник криптовалют в Telegram",
          "tr": "Telegram'da kripto para değişimi ",
          "zh": "-"
        },
        "text": {
          "en": "Crypto and fiat exchange within the Telegram messenger",
          "ru": "Обмен криптовалют и фиата в самом удобном формате - мессенджере Телеграм",
          "tr": "En uygun formatta kripto para birimi ve fiat değişimi - Telegram messenger",
          "zh": "-"
        }
      },{
        "image": "b2c-4.png",
        "title": {
          "en": "DEEX mobile app",
          "ru": "Мобильное приложение DEEX",
          "tr": "DEEX mobil uygulama",
          "zh": "-"
        },
        "text": {
          "en": "Easy exchange of crypto and fiat funds within a mobile app ",
          "ru": "Удобный обмен цифровых и фиатных активов в мобильном приложении",
          "tr": "Mobil uygulamada dijital ve fiat varlıkların uygun ticareti",
          "zh": "-"
        },
        "_target" : [
          {
            "params": {
              "className": "btn btn-blue btn-android",
              "href": "https://play.google.com/store/apps/details?id=deex.exchange.android",
              "target": "_blank"
            },
            "title": {
              "en": "Download",
              "ru": "Скачать",
              "tr": "İndirmek",
              "zh": "-"
            }
          }
        ]
      },{
        "image": "b2c-5.png",
        "title": {
          "en": "OTC deck",
          "ru": "OTC площадка ",
          "tr": "OTC platformu",
          "zh": "-"
        },
        "text": {
          "en": "Marketplace for P2P crypto trading. Secure and with minimal fees.",
          "ru": "Маркетплейс для Р2Р криптовалютных сделок. Безопасно и с минимальными комиссиями. ",
          "tr": "P2P kripto para birimi işlemleri için marketplace. Güvenli ve minimum ücret ile.",
          "zh": "-"
        },
        "target" : [
          {
            "params": {
              "href": "https://deex.exchange/landing/otc/",
              "target": "_blank",
              "className": "btn btn-blue"
            },
            "title": {
              "en": "Connect",
              "ru": "Подключить",
              "tr": "Bağlamak",
              "zh": "-"
            }
          }
        ]
      },{
        "image": "b2c-6.png",
        "label": {
          "style": {"backgroundColor": "#dd2233"},
          "text": {
            "en": "Coming soon! \uD83D\uDE80",
            "ru": "Скоро! \uD83D\uDE80",
            "tr": "Çok yakında! \uD83D\uDE80",
            "zh": "-"
          }
        },
        "title": {
          "en": "Cryptocards",
          "ru": "Криптокарты",
          "tr": "Kripto kartlar",
          "zh": "-"
        },
        "text": {
          "en": "Pre-paid bank cards connected with a crypto wallet",
          "ru": "Pre-paid банковские карты, привязанные к крипто-кошельку ",
          "tr": "Kripto cüdana bağlı Pre-paid banka kartları  ",
          "zh": "-"
        }
      }
    ]
  }
  