<svg width="20" height="16" viewBox="0 0 20 16" fill="none" xmlns="http://www.w3.org/2000/svg">
<path fill-rule="evenodd" clip-rule="evenodd" d="M9 1H11C11.55 1 12 1.45 12 2C12 2.55 11.55 3 11 3H1C0.45 3 0 2.55 0 2C0 1.45 0.45 1 1 1H3L3.71 0.29C3.89 0.11 4.15 0 4.41 0H7.59C7.85 0 8.11 0.11 8.29 0.29L9 1ZM1 14C1 15.1 1.9 16 3 16H9C10.1 16 11 15.1 11 14V4H1V14ZM14 4H19C19.55 4 20 4.45 20 5C20 5.55 19.55 6 19 6H14C13.45 6 13 5.55 13 5C13 4.45 13.45 4 14 4ZM14 12H16C16.55 12 17 12.45 17 13C17 13.55 16.55 14 16 14H14C13.45 14 13 13.55 13 13C13 12.45 13.45 12 14 12ZM18 8H14C13.45 8 13 8.45 13 9C13 9.55 13.45 10 14 10H18C18.55 10 19 9.55 19 9C19 8.45 18.55 8 18 8Z" fill="#C3CCCB"/>
</svg>
