<?xml version="1.0" encoding="UTF-8"?>
<svg width="8px" height="18px" viewBox="0 0 8 18" version="1.1" xmlns="http://www.w3.org/2000/svg" xmlns:xlink="http://www.w3.org/1999/xlink">
    <!-- Generator: Sketch 52.1 (67048) - http://www.bohemiancoding.com/sketch -->
    <title>facebook</title>
    <g id="Sourses" stroke="none" stroke-width="1" fill="none" fill-rule="evenodd">
        <path d="M7.67784758,8.98266464 L5.30496622,8.98266464 L5.30496622,18 L1.70984947,18 L1.70984947,8.98266464 L0,8.98266464 L0,5.8136142 L1.70984947,5.8136142 L1.70984947,3.76287857 C1.70984947,2.2963813 2.38141519,0 5.33696812,0 L8,0.0115569034 L8,3.08766034 L6.06779661,3.08766034 C5.75085931,3.08766034 5.30520327,3.25191591 5.30520327,3.9514774 L5.30520327,5.81656489 L7.99194026,5.81656489 L7.67784758,8.98266464 Z" id="Shape" fill="#8C979B" fill-rule="nonzero"></path>
    </g>
</svg>