<?xml version="1.0" encoding="UTF-8"?>
<svg width="114px" height="26px" viewBox="0 0 114 26" version="1.1" xmlns="http://www.w3.org/2000/svg" xmlns:xlink="http://www.w3.org/1999/xlink">
    <!-- Generator: Sketch 50 (54983) - http://www.bohemiancoding.com/sketch -->
    <title>logo</title>
    <defs></defs>
    <g id="Page-1" stroke="none" stroke-width="1" fill="none" fill-rule="evenodd">
        <g id="Artboard-Copy" transform="translate(-30.000000, -43.000000)">
            <g id="logo" transform="translate(30.000000, 43.000000)">
                <g>
                    <path d="M102.953723,12.672 L106.996467,8.64 L113.616,8.64 L104.66421,17.568 L107.582099,25.92 L101.35195,25.92 L100.043931,22.176 L96.2899543,25.92 L89.6704213,25.92 L98.3334441,17.28 L95.3149381,8.64 L101.545087,8.64 L102.953723,12.672 Z M47.6652785,25.92 L40.608,25.92 L46.4801283,8.64 L50.5109067,13.5701522 L47.9968453,20.9410845 L49.0900997,20.9410845 C51.8484088,20.9410845 53.7970215,19.8183496 54.7128027,17.1335172 C55.4704343,14.912547 54.3128431,13.5701522 51.8278531,13.5701522 L50.5109067,13.5701522 L52.1853161,8.64 L53.0622483,8.64 C58.6037018,8.64 62.9409212,10.5681974 60.6849535,17.1823234 C58.6120424,23.2596885 53.6005451,25.92 47.6652785,25.92 Z M59.8794656,25.92 L65.6926534,8.64 L78.1886772,8.64 L76.5629509,13.4725398 L69.5621568,13.4725398 L69.0612789,14.9613531 L74.3422342,14.9613531 L72.8230767,19.4765779 L67.5422505,19.4765779 L67.0004216,21.0874602 L73.8694318,21.0874602 L72.2437055,25.92 L59.8794656,25.92 Z M75.0654532,25.92 L80.878641,8.64 L93.3746647,8.64 L91.7489385,13.4725398 L84.7481444,13.4725398 L84.2472664,14.9613531 L89.5282217,14.9613531 L88.0090642,19.4765779 L82.7282381,19.4765779 L82.1864091,21.0874602 L89.0554193,21.0874602 L87.4296931,25.92 L75.0654532,25.92 Z" id="font" fill="#ffffff"></path>
                    <g id="emblem">
                        <polygon id="Combined-Shape-Copy-20" fill="#ffffff" points="8.46720264 25.92 1.98720264 25.92 0.259202637 15.552"></polygon>
                        <path d="M31.9614766,8.64 L26.0927974,25.92 L19.6127974,25.92 L25.4814766,8.64 L31.9614766,8.64 Z" id="Combined-Shape" fill="#ffffff" transform="translate(25.787137, 17.280000) scale(-1, 1) translate(-25.787137, -17.280000) "></path>
                        <polygon id="Combined-Shape-Copy-14" fill="#DE2233" points="39.744 3.024 31.968 25.92 25.488 25.92 33.264 3.024"></polygon>
                        <path d="M20.2110845,8.64 L14.3424053,25.92 L7.86240527,25.92 L13.7310845,8.64 L20.2110845,8.64 Z" id="Combined-Shape-Copy-2" fill="#ffffff" transform="translate(14.036745, 17.280000) scale(-1, 1) translate(-14.036745, -17.280000) "></path>
                        <path d="M26.086274,8.64 L20.2175947,25.92 L13.7375947,25.92 L19.606274,8.64 L26.086274,8.64 Z" id="Combined-Shape-Copy" fill="#DE2233"></path>
                        <path d="M14.3358819,8.64 L8.46720264,25.92 L1.98720264,25.92 L7.85588188,8.64 L14.3358819,8.64 Z" id="Combined-Shape-Copy-3" fill="#DE2233"></path>
                        <polygon id="Combined-Shape" fill="#DE2233" points="28.08 -1.00897068e-15 44.928 -1.77635684e-15 43.3500763 5.08716986 42.3753974 3.87973476 35.3249394 5.91937499 25.9251139 1.728 31.536 1.728"></polygon>
                        <polygon id="Rectangle-4" fill="#000000" points="36.72 1.296 40.6845255 1.296 40.2529149 2.63580227"></polygon>
                    </g>
                </g>
            </g>
        </g>
    </g>
</svg>