<?xml version="1.0" encoding="UTF-8"?>
<svg width="11px" height="10px" viewBox="0 0 11 10" version="1.1" xmlns="http://www.w3.org/2000/svg" xmlns:xlink="http://www.w3.org/1999/xlink">
    <!-- Generator: Sketch 50 (54983) - http://www.bohemiancoding.com/sketch -->
    <title>Star</title>
    <desc>Created with Sketch.</desc>
    <defs></defs>
    <g id="Page-1" stroke="none" stroke-width="1" fill="none" fill-rule="evenodd">
        <g id="exchange" transform="translate(-45.000000, -241.000000)" fill="#FFC700">
            <g id="my-markets" transform="translate(30.000000, 90.000000)">
                <g id="table" transform="translate(0.000000, 41.000000)">
                    <polygon id="Star" points="20.5 118.291796 17.1008131 120 17.75 116.381966 15 113.81966 18.8004065 113.291796 20.5 110 22.1995935 113.291796 26 113.81966 23.25 116.381966 23.8991869 120"></polygon>
                </g>
            </g>
        </g>
    </g>
</svg>