<?xml version="1.0" encoding="UTF-8"?>
<svg width="32px" height="32px" viewBox="0 0 32 32" version="1.1" xmlns="http://www.w3.org/2000/svg" xmlns:xlink="http://www.w3.org/1999/xlink">
    <!-- Generator: Sketch 50 (54983) - http://www.bohemiancoding.com/sketch -->
    <title>Oval</title>
    <defs></defs>
    <g id="Page-1" stroke="none" stroke-width="1" fill="none" fill-rule="evenodd">
        <g id="Loading_empty-screen" transform="translate(-624.000000, -357.000000)" stroke="#DE2233" stroke-width="2">
            <path d="M640.408752,387.994538 C648.504054,387.777962 655,381.147586 655,373 C655,364.715729 648.284271,358 640,358 C631.852414,358 625.222038,364.495946 625.005462,372.591248 L640.408752,387.994538 Z" id="Oval-2"></path>
        </g>
    </g>
</svg>