<?xml version="1.0" encoding="UTF-8"?>
<svg width="20px" height="20px" viewBox="0 0 20 20" version="1.1" xmlns="http://www.w3.org/2000/svg" xmlns:xlink="http://www.w3.org/1999/xlink">
    <!-- Generator: Sketch 52.1 (67048) - http://www.bohemiancoding.com/sketch -->
    <title>cun copy</title>
    <desc>Created with Sketch.</desc>
    <g id="Рынки" stroke="none" stroke-width="1" fill="none" fill-rule="evenodd">
        <g id="0_Main_dark" transform="translate(-1035.000000, -274.000000)" fill="#C3CCCB">
            <g id="Group-15" transform="translate(1020.000000, 50.000000)">
                <g id="Group-17" transform="translate(15.000000, 30.000000)">
                    <g id="cun-copy" transform="translate(0.000000, 194.000000)">
                        <path d="M10,14.7826087 C7.35863815,14.7826087 5.2173913,12.6413618 5.2173913,10 C5.2173913,7.35863815 7.35863815,5.2173913 10,5.2173913 C12.6413618,5.2173913 14.7826087,7.35863815 14.7826087,10 C14.7826087,12.6413618 12.6413618,14.7826087 10,14.7826087 Z M3.54380765,2.92893219 L5.38843404,4.77355857 C5.55822721,4.94335174 5.55822721,5.21864087 5.38843404,5.38843404 C5.21864087,5.55822721 4.94335174,5.55822721 4.77355857,5.38843404 L2.92893219,3.54380765 C2.75913902,3.37401448 2.75913902,3.09872536 2.92893219,2.92893219 C3.09872536,2.75913902 3.37401448,2.75913902 3.54380765,2.92893219 Z M15.2264414,14.611566 L17.0710678,16.4561923 C17.240861,16.6259855 17.240861,16.9012746 17.0710678,17.0710678 C16.9012746,17.240861 16.6259855,17.240861 16.4561923,17.0710678 L14.611566,15.2264414 C14.4417728,15.0566483 14.4417728,14.7813591 14.611566,14.611566 C14.7813591,14.4417728 15.0566483,14.4417728 15.2264414,14.611566 Z M17.0710678,3.54380765 L15.2264414,5.38843404 C15.0566483,5.55822721 14.7813591,5.55822721 14.611566,5.38843404 C14.4417728,5.21864087 14.4417728,4.94335174 14.611566,4.77355857 L16.4561923,2.92893219 C16.6259855,2.75913902 16.9012746,2.75913902 17.0710678,2.92893219 C17.240861,3.09872536 17.240861,3.37401448 17.0710678,3.54380765 Z M5.38843404,15.2264414 L3.54380765,17.0710678 C3.37401448,17.240861 3.09872536,17.240861 2.92893219,17.0710678 C2.75913902,16.9012746 2.75913902,16.6259855 2.92893219,16.4561923 L4.77355857,14.611566 C4.94335174,14.4417728 5.21864087,14.4417728 5.38843404,14.611566 C5.55822721,14.7813591 5.55822721,15.0566483 5.38843404,15.2264414 Z M0.434782609,9.56521739 L3.04347826,9.56521739 C3.28360207,9.56521739 3.47826087,9.7598762 3.47826087,10 C3.47826087,10.2401238 3.28360207,10.4347826 3.04347826,10.4347826 L0.434782609,10.4347826 C0.194658804,10.4347826 2.94066848e-17,10.2401238 0,10 C-2.94066848e-17,9.7598762 0.194658804,9.56521739 0.434782609,9.56521739 Z M16.9565217,9.56521739 L19.5652174,9.56521739 C19.8053412,9.56521739 20,9.7598762 20,10 C20,10.2401238 19.8053412,10.4347826 19.5652174,10.4347826 L16.9565217,10.4347826 C16.7163979,10.4347826 16.5217391,10.2401238 16.5217391,10 C16.5217391,9.7598762 16.7163979,9.56521739 16.9565217,9.56521739 Z M10.4347826,0.434782609 L10.4347826,3.04347826 C10.4347826,3.28360207 10.2401238,3.47826087 10,3.47826087 C9.7598762,3.47826087 9.56521739,3.28360207 9.56521739,3.04347826 L9.56521739,0.434782609 C9.56521739,0.194658804 9.7598762,4.41100272e-17 10,6.16297582e-33 C10.2401238,-4.41100272e-17 10.4347826,0.194658804 10.4347826,0.434782609 Z M10.4347826,16.9565217 L10.4347826,19.5652174 C10.4347826,19.8053412 10.2401238,20 10,20 C9.7598762,20 9.56521739,19.8053412 9.56521739,19.5652174 L9.56521739,16.9565217 C9.56521739,16.7163979 9.7598762,16.5217391 10,16.5217391 C10.2401238,16.5217391 10.4347826,16.7163979 10.4347826,16.9565217 Z" id="Combined-Shape"></path>
                    </g>
                </g>
            </g>
        </g>
    </g>
</svg>