<?xml version="1.0" encoding="UTF-8"?>
<svg width="18px" height="15px" viewBox="0 0 18 15" version="1.1" xmlns="http://www.w3.org/2000/svg" xmlns:xlink="http://www.w3.org/1999/xlink">
    <!-- Generator: Sketch 52.1 (67048) - http://www.bohemiancoding.com/sketch -->
    <title>Twitter</title>
    <g id="Sourses" stroke="none" stroke-width="1" fill="none" fill-rule="evenodd">
        <path d="M18,1.77576956 C17.3379234,2.07681446 16.6257229,2.28042926 15.8788213,2.37136402 C16.6414211,1.9028523 17.2266593,1.16153629 17.5028918,0.276757978 C16.7893142,0.710816154 15.998623,1.02569896 15.1578078,1.19542502 C14.4841641,0.459757131 13.5243735,0 12.4615808,0 C10.4224731,0 8.76865877,1.69584863 8.76865877,3.78678339 C8.76865877,4.08359221 8.80143211,4.37249365 8.86477554,4.64981644 C5.79564858,4.49195143 3.07435968,2.98446766 1.25282291,0.692742163 C0.935004131,1.25190624 0.752685211,1.9028523 0.752685211,2.59672409 C0.752685211,3.91019486 1.40512256,5.06975431 2.39548334,5.74865857 C1.79041586,5.72917255 1.22060039,5.55888167 0.722941338,5.27449873 C0.722665932,5.29059588 0.722665932,5.30669302 0.722665932,5.32250777 C0.722665932,7.1573002 1.99614431,8.68765885 3.68521069,9.03530076 C3.37565409,9.12228184 3.0487469,9.16831404 2.7124759,9.16831404 C2.47397411,9.16831404 2.24290829,9.14487433 2.017626,9.10081898 C2.48746902,10.6049139 3.85100523,11.6998023 5.46736436,11.7305846 C4.20324979,12.7463993 2.61112641,13.3515956 0.880473699,13.3515956 C0.583034977,13.3515956 0.288350317,13.333804 0,13.2985032 C1.63343432,14.3733409 3.5750482,15 5.66042413,15 C12.4530432,15 16.1677224,9.22987857 16.1677224,4.22536007 C16.1677224,4.06128212 16.1641421,3.89776899 16.1569815,3.73566789 C16.8790967,3.20192036 17.505095,2.53515956 18,1.77576956 Z" id="Shape" fill="#8C979B" fill-rule="nonzero"></path>
    </g>
</svg>