<?xml version="1.0" encoding="UTF-8"?>
<svg width="26px" height="24px" viewBox="0 0 26 24" version="1.1" xmlns="http://www.w3.org/2000/svg" xmlns:xlink="http://www.w3.org/1999/xlink">
    <!-- Generator: Sketch 50 (54983) - http://www.bohemiancoding.com/sketch -->
    <title>browser</title>
    <defs></defs>
    <g id="Page-1" stroke="none" stroke-width="1" fill="none" fill-rule="evenodd">
        <g id="deez-pop-up-copy-2" transform="translate(-788.000000, -360.000000)" fill="#DE2233" fill-rule="nonzero">
            <g id="Group-4" transform="translate(300.000000, 86.000000)">
                <g id="Group-3" transform="translate(70.000000, 154.000000)">
                    <g id="Group-10" transform="translate(280.000000, 116.000000)">
                        <g id="flaticon1526821195-svg" transform="translate(138.000000, 4.000000)">
                            <g id="Group" transform="translate(5.104294, 9.290323)">
                                <path d="M5.22647853,7.55287742 C5.21587117,7.48172903 5.1766319,7.41762581 5.11737423,7.37458065 L2.11062577,5.19189677 L5.11737423,3.0092129 C5.1766319,2.96616774 5.21587117,2.90206452 5.22647853,2.83091613 C5.23700613,2.75976774 5.21810429,2.68753548 5.17368098,2.62985806 L4.69603067,2.00988387 C4.60359509,1.89003871 4.42877301,1.86549677 4.30531288,1.95522581 L0.145552147,4.97489032 C0.0751288344,5.0259871 0.0335766871,5.10642581 0.0335766871,5.19189677 C0.0335766871,5.27736774 0.0751288344,5.35780645 0.145552147,5.40890323 L4.30531288,8.42856774 C4.35539877,8.46503226 4.41409816,8.48252903 4.47223926,8.48252903 C4.55725767,8.48252903 4.64123926,8.44505806 4.69603067,8.37390968 L5.17368098,7.75393548 C5.21802454,7.69625806 5.23700613,7.62402581 5.22647853,7.55287742 Z" id="Shape"></path>
                                <path d="M15.6132393,4.97489032 L11.453638,1.95522581 C11.3301779,1.86557419 11.1553558,1.89011613 11.063,2.00988387 L10.5853497,2.62985806 C10.5410061,2.68745806 10.5220245,2.75976774 10.5325521,2.83091613 C10.5431595,2.9019871 10.582319,2.96616774 10.6416564,3.0092129 L13.6483252,5.19189677 L10.6416564,7.37458065 C10.582319,7.41762581 10.5431595,7.48180645 10.5325521,7.55287742 C10.5220245,7.62402581 10.5409264,7.69633548 10.5853497,7.75393548 L11.063,8.37390968 C11.1178712,8.44505806 11.201773,8.48252903 11.2867914,8.48252903 C11.3449325,8.48252903 11.4035521,8.46495484 11.4537178,8.42856774 L15.613319,5.40890323 C15.6837423,5.35780645 15.7252945,5.27736774 15.7252945,5.19189677 C15.7252945,5.10642581 15.6836626,5.0259871 15.6132393,4.97489032 Z" id="Shape"></path>
                                <path d="M10.5486626,0.343432258 L9.81404294,0.041883871 C9.74593252,0.0138580645 9.66904908,0.0133935484 9.60038037,0.0403354839 C9.53179141,0.0673548387 9.477,0.119690323 9.44820859,0.185883871 L5.06170552,10.2569032 C5.00165031,10.3947097 5.06808589,10.553729 5.21012883,10.6120258 L5.94474847,10.9135742 C5.97944172,10.9278968 6.01644785,10.9349419 6.05345399,10.9349419 C6.08910429,10.9349419 6.1247546,10.9282839 6.15841104,10.9150452 C6.227,10.8880258 6.28171166,10.8356903 6.31058282,10.7694968 L10.6970859,0.698477419 C10.7570613,0.560670968 10.6906258,0.401729032 10.5486626,0.343432258 Z" id="Shape"></path>
                            </g>
                            <path d="M24.5717546,0.0358451613 L1.39570552,0.0358451613 C0.626153374,0.0358451613 0,0.643664516 0,1.39068387 L0,22.577729 C0,23.3247484 0.626153374,23.9325677 1.39570552,23.9325677 L24.5717546,23.9325677 C25.3413067,23.9325677 25.9674601,23.3247484 25.9674601,22.577729 L25.9674601,1.39068387 C25.9674601,0.643587097 25.3413067,0.0358451613 24.5717546,0.0358451613 Z M21.810092,2.11323871 C22.4477301,2.11323871 22.9665337,2.61685161 22.9665337,3.23581935 C22.9665337,3.8547871 22.4477301,4.3584 21.810092,4.3584 C21.172454,4.3584 20.6536503,3.8547871 20.6536503,3.23581935 C20.6536503,2.61685161 21.172454,2.11323871 21.810092,2.11323871 Z M17.8884785,2.11323871 C18.5261166,2.11323871 19.0449202,2.61685161 19.0449202,3.23581935 C19.0449202,3.8547871 18.5261166,4.3584 17.8884785,4.3584 C17.2508405,4.3584 16.7320368,3.8547871 16.7320368,3.23581935 C16.7320368,2.61685161 17.2508405,2.11323871 17.8884785,2.11323871 Z M3.54102454,2.65517419 L8.20666871,2.65517419 C8.53701227,2.65517419 8.80482822,2.91507097 8.80482822,3.23581935 C8.80482822,3.55656774 8.53701227,3.81646452 8.20666871,3.81646452 L3.54102454,3.81646452 C3.21068098,3.81646452 2.94286503,3.55656774 2.94286503,3.23581935 C2.94286503,2.91507097 3.21068098,2.65517419 3.54102454,2.65517419 Z M23.7506012,21.5849806 C23.7506012,21.6823742 23.6689325,21.761729 23.5684417,21.761729 L2.3990184,21.761729 C2.29860736,21.761729 2.2168589,21.6823742 2.2168589,21.5849806 L2.2168589,6.99375484 L23.7506012,6.99375484 L23.7506012,21.5849806 Z" id="Shape"></path>
                        </g>
                    </g>
                </g>
            </g>
        </g>
    </g>
</svg>