<?xml version="1.0" encoding="UTF-8"?>
<svg width="30px" height="24px" viewBox="0 0 30 24" version="1.1" xmlns="http://www.w3.org/2000/svg" xmlns:xlink="http://www.w3.org/1999/xlink">
    <!-- Generator: Sketch 50 (54983) - http://www.bohemiancoding.com/sketch -->
    <title>link</title>
    <defs></defs>
    <g id="Page-1" stroke="none" stroke-width="1" fill="#8C979B" fill-rule="evenodd">
        <g id="deez-pop-up-copy-2" transform="translate(-475.000000, -243.000000)" fill="#8C979B" fill-rule="nonzero">
            <g id="Group-4" transform="translate(300.000000, 86.000000)">
                <g id="Group-3" transform="translate(70.000000, 154.000000)">
                    <g id="Group-8" transform="translate(18.000000, 3.000000)">
                        <g id="flaticon1526820224-svg" transform="translate(87.000000, 0.000000)">
                            <path d="M7.16728625,13.905 L2.41928625,11.164 C0.106286254,9.83 -0.686713746,6.864 0.648286254,4.552 L1.43928625,3.182 C2.77428625,0.87 5.74028625,0.076 8.05028625,1.411 L12.7972863,4.151 C14.7772863,5.296 15.6352863,7.635 15.0002863,9.737 L12.5012863,8.294 C12.4832863,7.575 12.1102863,6.881 11.4432863,6.496 L6.69528625,3.756 C5.67728625,3.168 4.37128625,3.519 3.78328625,4.537 L2.99328625,5.907 C2.40528625,6.926 2.75428625,8.231 3.77228625,8.819 L8.51928625,11.559 C9.18628625,11.944 9.97328625,11.921 10.6052863,11.577 L13.1032863,13.02 C11.6032863,14.62 9.14728625,15.049 7.16728625,13.905 Z M21.0702863,13.867 C21.7162863,14.241 21.9402863,15.068 21.5662863,15.716 C21.1912863,16.364 20.3632863,16.585 19.7162863,16.212 L8.93028625,9.984 C8.28428625,9.609 8.06028625,8.782 8.43428625,8.134 C8.80928625,7.486 9.63728625,7.265 10.2842863,7.638 L21.0702863,13.867 Z M29.3522863,19.298 L28.5612863,20.668 C27.2262863,22.98 24.2592863,23.775 21.9512863,22.439 L17.2032863,19.699 C15.2242863,18.554 14.3662863,16.214 15.0002863,14.113 L17.5002863,15.556 C17.5182863,16.275 17.8912863,16.969 18.5582863,17.355 L23.3062863,20.094 C24.3252863,20.683 25.6292863,20.331 26.2172863,19.314 L27.0082863,17.943 C27.5962863,16.924 27.2462863,15.619 26.2292863,15.031 L21.4822863,12.291 C20.8152863,11.906 20.0282863,11.93 19.3962863,12.273 L16.8982863,10.83 C18.4002863,9.23 20.8552863,8.802 22.8362863,9.945 L27.5842863,12.687 C29.8942863,14.021 30.6882863,16.986 29.3522863,19.298 Z" id="Shape"></path>
                        </g>
                    </g>
                </g>
            </g>
        </g>
    </g>
</svg>